{
    "totalHits": 42721,
    "currentPage": 1,
    "totalPages": 855,
    "pageList": [
        1,
        2,
        3,
        4,
        5,
        6,
        7,
        8,
        9,
        10
    ],
    "foodSearchCriteria": {
        "query": "Cheddar Cheese",
        "generalSearchInput": "Cheddar Cheese",
        "pageNumber": 1,
        "numberOfResultsPerPage": 50,
        "pageSize": 50,
        "requireAllWords": false
    },
    "foods": [
        {
            "fdcId": 1250829,
            "description": "CHEDDAR CHEESE",
            "lowercaseDescription": "cheddar cheese",
            "dataType": "Branded",
            "gtinUpc": "078354715109",
            "publishedDate": "2021-02-26",
            "brandOwner": "Agri-Mark, Inc.",
            "ingredients": "PASTEURIZED MILK, CHEESE CULTURES, SALT, ENZYMES.",
            "allHighlightFields": "<b>Ingredients</b>: PASTEURIZED MILK, <em>CHEESE</em> CULTURES, SALT, ENZYMES.",
            "score": 746.9463,
            "foodNutrients": [
                {
                    "nutrientId": 1003,
                    "nutrientName": "Protein",
                    "nutrientNumber": "203",
                    "unitName": "G",
                    "derivationCode": "LCCS",
                    "derivationDescription": "Calculated from value per serving size measure",
                    "value": 25.0
                },
                {
                    "nutrientId": 1004,
                    "nutrientName": "Total lipid (fat)",
                    "nutrientNumber": "204",
                    "unitName": "G",
                    "derivationCode": "LCCS",
                    "derivationDescription": "Calculated from value per serving size measure",
                    "value": 32.1
                },
                {
                    "nutrientId": 1005,
                    "nutrientName": "Carbohydrate, by difference",
                    "nutrientNumber": "205",
                    "unitName": "G",
                    "derivationCode": "LCSL",
                    "derivationDescription": "Calculated from a less than value per serving size measure",
                    "value": 3.57
                },
                {
                    "nutrientId": 1008,
                    "nutrientName": "Energy",
                    "nutrientNumber": "208",
                    "unitName": "KCAL",
                    "derivationCode": "LCCS",
                    "derivationDescription": "Calculated from value per serving size measure",
                    "value": 393
                },
                {
                    "nutrientId": 2000,
                    "nutrientName": "Sugars, total including NLEA",
                    "nutrientNumber": "269",
                    "unitName": "G",
                    "derivationCode": "LCCS",
                    "derivationDescription": "Calculated from value per serving size measure",
                    "value": 0.0
                },
                {
                    "nutrientId": 1079,
                    "nutrientName": "Fiber, total dietary",
                    "nutrientNumber": "291",
                    "unitName": "G",
                    "derivationCode": "LCCD",
                    "derivationDescription": "Calculated from a daily value percentage per serving size measure",
                    "value": 0.0
                },
                {
                    "nutrientId": 1087,
                    "nutrientName": "Calcium, Ca",
                    "nutrientNumber": "301",
                    "unitName": "MG",
                    "derivationCode": "LCCD",
                    "derivationDescription": "Calculated from a daily value percentage per serving size measure",
                    "value": 714
                },
                {
                    "nutrientId": 1089,
                    "nutrientName": "Iron, Fe",
                    "nutrientNumber": "303",
                    "unitName": "MG",
                    "derivationCode": "LCCD",
                    "derivationDescription": "Calculated from a daily value percentage per serving size measure",
                    "value": 0.0
                },
                {
                    "nutrientId": 1093,
                    "nutrientName": "Sodium, Na",
                    "nutrientNumber": "307",
                    "unitName": "MG",
                    "derivationCode": "LCCS",
                    "derivationDescription": "Calculated from value per serving size measure",
                    "value": 643
                },
                {
                    "nutrientId": 1104,
                    "nutrientName": "Vitamin A, IU",
                    "nutrientNumber": "318",
                    "unitName": "IU",
                    "derivationCode": "LCCD",
                    "derivationDescription": "Calculated from a daily value percentage per serving size measure",
                    "value": 1070.0
                },
                {
                    "nutrientId": 1162,
                    "nutrientName": "Vitamin C, total ascorbic acid",
                    "nutrientNumber": "401",
                    "unitName": "MG",
                    "derivationCode": "LCCD",
                    "derivationDescription": "Calculated from a daily value percentage per serving size measure",
                    "value": 0.0
                },
                {
                    "nutrientId": 1253,
                    "nutrientName": "Cholesterol",
                    "nutrientNumber": "601",
                    "unitName": "MG",
                    "derivationCode": "LCCS",
                    "derivationDescription": "Calculated from value per serving size measure",
                    "value": 107
                },
                {
                    "nutrientId": 1257,
                    "nutrientName": "Fatty acids, total trans",
                    "nutrientNumber": "605",
                    "unitName": "G",
                    "derivationCode": "LCCS",
                    "derivationDescription": "Calculated from value per serving size measure",
                    "value": 0.0
                },
                {
                    "nutrientId": 1258,
                    "nutrientName": "Fatty acids, total saturated",
                    "nutrientNumber": "606",
                    "unitName": "G",
                    "derivationCode": "LCCS",
                    "derivationDescription": "Calculated from value per serving size measure",
                    "value": 21.4
                }
            ]
        },
        {
            "fdcId": 1258725,
            "description": "CHEDDAR CHEESE",
            "lowercaseDescription": "cheddar cheese",
            "dataType": "Branded",
            "gtinUpc": "854115003322",
            "publishedDate": "2021-02-26",
            "brandOwner": "Heber Valley Artisan Cheese LLC",
            "ingredients": "PASTEURIZED MILK, SALT, SUN DRIED TOMATOS, BASIL, OLIVE OIL, GARLIC, HERBS, SPICES, CHEESE CULTURES & ENZYMES.",
            "allHighlightFields": "<b>Brand Owner</b>: Heber Valley Artisan <em>Cheese</em> LLC<br/><b>Ingredients</b>: PASTEURIZED MILK, SALT, SUN DRIED TOMATOS, BASIL, OLIVE OIL, GARLIC, HERBS, SPICES, <em>CHEESE</em> CULTURES & ENZYMES.",
            "score": 746.9463,
            "foodNutrients": [
                {
                    "nutrientId": 1003,
                    "nutrientName": "Protein",
                    "nutrientNumber": "203",
                    "unitName": "G",
                    "derivationCode": "LCCS",
                    "derivationDescription": "Calculated from value per serving size measure",
                    "value": 3.57
                },
                {
                    "nutrientId": 1004,
                    "nutrientName": "Total lipid (fat)",
                    "nutrientNumber": "204",
                    "unitName": "G",
                    "derivationCode": "LCCS",
                    "derivationDescription": "Calculated from value per serving size measure",
                    "value": 32.1
                },
                {
                    "nutrientId": 1005,
                    "nutrientName": "Carbohydrate, by difference",
                    "nutrientNumber": "205",
                    "unitName": "G",
                    "derivationCode": "LCCD",
                    "derivationDescription": "Calculated from a daily value percentage per serving size measure",
                    "value": 0.0
                },
                {
                    "nutrientId": 1008,
                    "nutrientName": "Energy",
                    "nutrientNumber": "208",
                    "unitName": "KCAL",
                    "derivationCode": "LCCS",
                    "derivationDescription": "Calculated from value per serving size measure",
                    "value": 404
                },
                {
                    "nutrientId": 1087,
                    "nutrientName": "Calcium, Ca",
                    "nutrientNumber": "301",
                    "unitName": "MG",
                    "derivationCode": "LCCD",
                    "derivationDescription": "Calculated from a daily value percentage per serving size measure",
                    "value": 714
                },
                {
                    "nutrientId": 1093,
                    "nutrientName": "Sodium, Na",
                    "nutrientNumber": "307",
                    "unitName": "MG",
                    "derivationCode": "LCCS",
                    "derivationDescription": "Calculated from value per serving size measure",
                    "value": 661
                },
                {
                    "nutrientId": 1104,
                    "nutrientName": "Vitamin A, IU",
                    "nutrientNumber": "318",
                    "unitName": "IU",
                    "derivationCode": "LCCD",
                    "derivationDescription": "Calculated from a daily value percentage per serving size measure",
                    "value": 1070.0
                },
                {
                    "nutrientId": 1253,
                    "nutrientName": "Cholesterol",
                    "nutrientNumber": "601",
                    "unitName": "MG",
                    "derivationCode": "LCCS",
                    "derivationDescription": "Calculated from value per serving size measure",
                    "value": 125
                },
                {
                    "nutrientId": 1257,
                    "nutrientName": "Fatty acids, total trans",
                    "nutrientNumber": "605",
                    "unitName": "G",
                    "derivationCode": "LCCS",
                    "derivationDescription": "Calculated from value per serving size measure",
                    "value": 0.0
                },
                {
                    "nutrientId": 1258,
                    "nutrientName": "Fatty acids, total saturated",
                    "nutrientNumber": "606",
                    "unitName": "G",
                    "derivationCode": "LCCS",
                    "derivationDescription": "Calculated from value per serving size measure",
                    "value": 21.4
                }
            ]
        }
    ]
}