{
    "totalHits":277,
    "currentPage":1,
    "totalPages":277,
    "pageList":[
       1,
       2,
       3,
       4,
       5,
       6,
       7,
       8,
       9,
       10
    ],
    "foodSearchCriteria":{
       "dataType":[
          "SR Legacy"
       ],
       "query":"Cheese",
       "generalSearchInput":"Cheese",
       "pageNumber":1,
       "numberOfResultsPerPage":50,
       "pageSize":1,
       "requireAllWords":false,
       "foodTypes":[
          "SR Legacy"
       ]
    },
    "foods":[
       {
          "fdcId":169081,
          "description":"Cheese spread, cream cheese base",
          "lowercaseDescription":"cheese spread, cream cheese base",
          "commonNames":"",
          "additionalDescriptions":"",
          "dataType":"SR Legacy",
          "ndbNumber":"43276",
          "publishedDate":"2019-04-01",
          "allHighlightFields":"",
          "score":195.75757,
          "foodNutrients":[
             {
                "nutrientId":1109,
                "nutrientName":"Vitamin E (alpha-tocopherol)",
                "nutrientNumber":"323",
                "unitName":"MG",
                "derivationCode":"NR",
                "derivationDescription":"Nutrient that is based on other nutrient/s; value used directly, ex. Nut.#204 from Nut.#298",
                "value":0.77
             },
             {
                "nutrientId":1057,
                "nutrientName":"Caffeine",
                "nutrientNumber":"262",
                "unitName":"MG",
                "derivationCode":"Z",
                "derivationDescription":"Assumed zero (Insignificant amount or not naturally occurring in a food, such as fiber in meat)",
                "value":0.0
             },
             {
                "nutrientId":1058,
                "nutrientName":"Theobromine",
                "nutrientNumber":"263",
                "unitName":"MG",
                "derivationCode":"Z",
                "derivationDescription":"Assumed zero (Insignificant amount or not naturally occurring in a food, such as fiber in meat)",
                "value":0.0
             },
             {
                "nutrientId":1123,
                "nutrientName":"Lutein + zeaxanthin",
                "nutrientNumber":"338",
                "unitName":"UG",
                "derivationCode":"Z",
                "derivationDescription":"Assumed zero (Insignificant amount or not naturally occurring in a food, such as fiber in meat)",
                "value":0.0
             },
             {
                "nutrientId":1186,
                "nutrientName":"Folic acid",
                "nutrientNumber":"431",
                "unitName":"UG",
                "derivationCode":"Z",
                "derivationDescription":"Assumed zero (Insignificant amount or not naturally occurring in a food, such as fiber in meat)",
                "value":0.0
             },
             {
                "nutrientId":1120,
                "nutrientName":"Cryptoxanthin, beta",
                "nutrientNumber":"334",
                "unitName":"UG",
                "derivationCode":"Z",
                "derivationDescription":"Assumed zero (Insignificant amount or not naturally occurring in a food, such as fiber in meat)",
                "value":0.0
             },
             {
                "nutrientId":1122,
                "nutrientName":"Lycopene",
                "nutrientNumber":"337",
                "unitName":"UG",
                "derivationCode":"Z",
                "derivationDescription":"Assumed zero (Insignificant amount or not naturally occurring in a food, such as fiber in meat)",
                "value":0.0
             },
             {
                "nutrientId":1007,
                "nutrientName":"Ash",
                "nutrientNumber":"207",
                "unitName":"G",
                "derivationCode":"NR",
                "derivationDescription":"Nutrient that is based on other nutrient/s; value used directly, ex. Nut.#204 from Nut.#298",
                "value":2.3
             },
             {
                "nutrientId":1108,
                "nutrientName":"Carotene, alpha",
                "nutrientNumber":"322",
                "unitName":"UG",
                "derivationCode":"Z",
                "derivationDescription":"Assumed zero (Insignificant amount or not naturally occurring in a food, such as fiber in meat)",
                "value":0.0
             },
             {
                "nutrientId":1279,
                "nutrientName":"22:1",
                "nutrientNumber":"630",
                "unitName":"G",
                "value":0.0
             },
             {
                "nutrientId":1292,
                "nutrientName":"Fatty acids, total monounsaturated",
                "nutrientNumber":"645",
                "unitName":"G",
                "value":8.07
             },
             {
                "nutrientId":1293,
                "nutrientName":"Fatty acids, total polyunsaturated",
                "nutrientNumber":"646",
                "unitName":"G",
                "value":1.03
             },
             {
                "nutrientId":1110,
                "nutrientName":"Vitamin D (D2 + D3), International Units",
                "nutrientNumber":"324",
                "unitName":"IU",
                "derivationCode":"BFFN",
                "derivationDescription":"Based on another form of the food or similar food; Concentration adjustment; Fat; Retention factors not used",
                "value":21.0
             },
             {
                "nutrientId":1167,
                "nutrientName":"Niacin",
                "nutrientNumber":"406",
                "unitName":"MG",
                "value":0.95
             },
             {
                "nutrientId":1175,
                "nutrientName":"Vitamin B-6",
                "nutrientNumber":"415",
                "unitName":"MG",
                "value":0.04
             },
             {
                "nutrientId":1180,
                "nutrientName":"Choline, total",
                "nutrientNumber":"421",
                "unitName":"MG",
                "derivationCode":"BFZN",
                "derivationDescription":"Based on another form of the food or similar food; Concentration adjustment; No adjustment; Retention factors not used",
                "value":27.2
             },
             {
                "nutrientId":1259,
                "nutrientName":"4:0",
                "nutrientNumber":"607",
                "unitName":"G",
                "value":0.82
             },
             {
                "nutrientId":1260,
                "nutrientName":"6:0",
                "nutrientNumber":"608",
                "unitName":"G",
                "value":0.238
             },
             {
                "nutrientId":1262,
                "nutrientName":"10:0",
                "nutrientNumber":"610",
                "unitName":"G",
                "value":0.55
             },
             {
                "nutrientId":1265,
                "nutrientName":"16:0",
                "nutrientNumber":"613",
                "unitName":"G",
                "value":8.64
             },
             {
                "nutrientId":1266,
                "nutrientName":"18:0",
                "nutrientNumber":"614",
                "unitName":"G",
                "value":3.31
             },
             {
                "nutrientId":1268,
                "nutrientName":"18:1",
                "nutrientNumber":"617",
                "unitName":"G",
                "value":6.87
             },
             {
                "nutrientId":1269,
                "nutrientName":"18:2",
                "nutrientNumber":"618",
                "unitName":"G",
                "value":0.632
             },
             {
                "nutrientId":1270,
                "nutrientName":"18:3",
                "nutrientNumber":"619",
                "unitName":"G",
                "value":0.402
             },
             {
                "nutrientId":1271,
                "nutrientName":"20:4",
                "nutrientNumber":"620",
                "unitName":"G",
                "value":0.0
             },
             {
                "nutrientId":1276,
                "nutrientName":"18:4",
                "nutrientNumber":"627",
                "unitName":"G",
                "value":0.0
             },
             {
                "nutrientId":1277,
                "nutrientName":"20:1",
                "nutrientNumber":"628",
                "unitName":"G",
                "value":0.0
             },
             {
                "nutrientId":1190,
                "nutrientName":"Folate, DFE",
                "nutrientNumber":"435",
                "unitName":"UG",
                "derivationCode":"NC",
                "derivationDescription":"Calculated",
                "value":12.0
             },
             {
                "nutrientId":2000,
                "nutrientName":"Sugars, total including NLEA",
                "nutrientNumber":"269",
                "unitName":"G",
                "derivationCode":"NR",
                "derivationDescription":"Nutrient that is based on other nutrient/s; value used directly, ex. Nut.#204 from Nut.#298",
                "value":3.5
             },
             {
                "nutrientId":1087,
                "nutrientName":"Calcium, Ca",
                "nutrientNumber":"301",
                "unitName":"MG",
                "value":71.0
             },
             {
                "nutrientId":1092,
                "nutrientName":"Potassium, K",
                "nutrientNumber":"306",
                "unitName":"MG",
                "value":112
             },
             {
                "nutrientId":1095,
                "nutrientName":"Zinc, Zn",
                "nutrientNumber":"309",
                "unitName":"MG",
                "value":0.51
             },
             {
                "nutrientId":1004,
                "nutrientName":"Total lipid (fat)",
                "nutrientNumber":"204",
                "unitName":"G",
                "value":28.6
             },
             {
                "nutrientId":1005,
                "nutrientName":"Carbohydrate, by difference",
                "nutrientNumber":"205",
                "unitName":"G",
                "derivationCode":"NC",
                "derivationDescription":"Calculated",
                "value":3.5
             },
             {
                "nutrientId":1008,
                "nutrientName":"Energy",
                "nutrientNumber":"208",
                "unitName":"KCAL",
                "value":295
             },
             {
                "nutrientId":1051,
                "nutrientName":"Water",
                "nutrientNumber":"255",
                "unitName":"G",
                "value":58.5
             },
             {
                "nutrientId":1018,
                "nutrientName":"Alcohol, ethyl",
                "nutrientNumber":"221",
                "unitName":"G",
                "value":0.0
             },
             {
                "nutrientId":1062,
                "nutrientName":"Energy",
                "nutrientNumber":"268",
                "unitName":"kJ",
                "value":1230.0
             },
             {
                "nutrientId":1079,
                "nutrientName":"Fiber, total dietary",
                "nutrientNumber":"291",
                "unitName":"G",
                "value":0.0
             },
             {
                "nutrientId":1089,
                "nutrientName":"Iron, Fe",
                "nutrientNumber":"303",
                "unitName":"MG",
                "value":1.13
             },
             {
                "nutrientId":1090,
                "nutrientName":"Magnesium, Mg",
                "nutrientNumber":"304",
                "unitName":"MG",
                "value":6.0
             },
             {
                "nutrientId":1091,
                "nutrientName":"Phosphorus, P",
                "nutrientNumber":"305",
                "unitName":"MG",
                "value":91.0
             },
             {
                "nutrientId":1003,
                "nutrientName":"Protein",
                "nutrientNumber":"203",
                "unitName":"G",
                "value":7.1
             },
             {
                "nutrientId":1098,
                "nutrientName":"Copper, Cu",
                "nutrientNumber":"312",
                "unitName":"MG",
                "value":0.015
             },
             {
                "nutrientId":1104,
                "nutrientName":"Vitamin A, IU",
                "nutrientNumber":"318",
                "unitName":"IU",
                "derivationCode":"NC",
                "derivationDescription":"Calculated",
                "value":1030.0
             },
             {
                "nutrientId":1105,
                "nutrientName":"Retinol",
                "nutrientNumber":"319",
                "unitName":"UG",
                "derivationCode":"BFFN",
                "derivationDescription":"Based on another form of the food or similar food; Concentration adjustment; Fat; Retention factors not used",
                "value":300
             },
             {
                "nutrientId":1106,
                "nutrientName":"Vitamin A, RAE",
                "nutrientNumber":"320",
                "unitName":"UG",
                "derivationCode":"NC",
                "derivationDescription":"Calculated",
                "value":302
             },
             {
                "nutrientId":1107,
                "nutrientName":"Carotene, beta",
                "nutrientNumber":"321",
                "unitName":"UG",
                "derivationCode":"T",
                "derivationDescription":"Taken from another source--other tables of food composition",
                "value":19.0
             },
             {
                "nutrientId":1162,
                "nutrientName":"Vitamin C, total ascorbic acid",
                "nutrientNumber":"401",
                "unitName":"MG",
                "value":0.0
             },
             {
                "nutrientId":1165,
                "nutrientName":"Thiamin",
                "nutrientNumber":"404",
                "unitName":"MG",
                "value":0.02
             },
             {
                "nutrientId":1166,
                "nutrientName":"Riboflavin",
                "nutrientNumber":"405",
                "unitName":"MG",
                "value":0.19
             },
             {
                "nutrientId":1177,
                "nutrientName":"Folate, total",
                "nutrientNumber":"417",
                "unitName":"UG",
                "value":12.0
             },
             {
                "nutrientId":1178,
                "nutrientName":"Vitamin B-12",
                "nutrientNumber":"418",
                "unitName":"UG",
                "value":0.4
             },
             {
                "nutrientId":1185,
                "nutrientName":"Vitamin K (phylloquinone)",
                "nutrientNumber":"430",
                "unitName":"UG",
                "derivationCode":"BFFN",
                "derivationDescription":"Based on another form of the food or similar food; Concentration adjustment; Fat; Retention factors not used",
                "value":2.4
             },
             {
                "nutrientId":1187,
                "nutrientName":"Folate, food",
                "nutrientNumber":"432",
                "unitName":"UG",
                "value":12.0
             },
             {
                "nutrientId":1253,
                "nutrientName":"Cholesterol",
                "nutrientNumber":"601",
                "unitName":"MG",
                "value":90.0
             },
             {
                "nutrientId":1258,
                "nutrientName":"Fatty acids, total saturated",
                "nutrientNumber":"606",
                "unitName":"G",
                "value":18.0
             },
             {
                "nutrientId":1261,
                "nutrientName":"8:0",
                "nutrientNumber":"609",
                "unitName":"G",
                "value":0.279
             },
             {
                "nutrientId":1263,
                "nutrientName":"12:0",
                "nutrientNumber":"611",
                "unitName":"G",
                "value":0.377
             },
             {
                "nutrientId":1264,
                "nutrientName":"14:0",
                "nutrientNumber":"612",
                "unitName":"G",
                "value":2.95
             },
             {
                "nutrientId":1272,
                "nutrientName":"22:6 n-3 (DHA)",
                "nutrientNumber":"621",
                "unitName":"G",
                "value":0.0
             },
             {
                "nutrientId":1275,
                "nutrientName":"16:1",
                "nutrientNumber":"626",
                "unitName":"G",
                "value":0.804
             },
             {
                "nutrientId":1112,
                "nutrientName":"Vitamin D3 (cholecalciferol)",
                "nutrientNumber":"326",
                "unitName":"UG",
                "derivationCode":"BFFN",
                "derivationDescription":"Based on another form of the food or similar food; Concentration adjustment; Fat; Retention factors not used",
                "value":0.5
             },
             {
                "nutrientId":1114,
                "nutrientName":"Vitamin D (D2 + D3)",
                "nutrientNumber":"328",
                "unitName":"UG",
                "value":0.5
             },
             {
                "nutrientId":1278,
                "nutrientName":"20:5 n-3 (EPA)",
                "nutrientNumber":"629",
                "unitName":"G",
                "value":0.0
             },
             {
                "nutrientId":1280,
                "nutrientName":"22:5 n-3 (DPA)",
                "nutrientNumber":"631",
                "unitName":"G",
                "value":0.0
             },
             {
                "nutrientId":1093,
                "nutrientName":"Sodium, Na",
                "nutrientNumber":"307",
                "unitName":"MG",
                "derivationCode":"NR",
                "derivationDescription":"Nutrient that is based on other nutrient/s; value used directly, ex. Nut.#204 from Nut.#298",
                "value":436
             },
             {
                "nutrientId":1242,
                "nutrientName":"Vitamin E, added",
                "nutrientNumber":"573",
                "unitName":"MG",
                "derivationCode":"Z",
                "derivationDescription":"Assumed zero (Insignificant amount or not naturally occurring in a food, such as fiber in meat)",
                "value":0.0
             },
             {
                "nutrientId":1246,
                "nutrientName":"Vitamin B-12, added",
                "nutrientNumber":"578",
                "unitName":"UG",
                "derivationCode":"Z",
                "derivationDescription":"Assumed zero (Insignificant amount or not naturally occurring in a food, such as fiber in meat)",
                "value":0.0
             },
             {
                "nutrientId":1103,
                "nutrientName":"Selenium, Se",
                "nutrientNumber":"317",
                "unitName":"UG",
                "derivationCode":"BFNN",
                "derivationDescription":"Based on another form of the food or similar food; Concentration adjustment; Non-fat solids; Retention factors not used",
                "value":2.7
             }
          ]
       }
    ],
    "aggregations":{
       "dataType":{
          "Branded":41911,
          "Survey (FNDDS)":657,
          "SR Legacy":277,
          "Foundation":9
       },
       "nutrients":{
          
       }
    }
 }